<svg id="mermaid-1579814226923" width="100%" xmlns="http://www.w3.org/2000/svg" height="100%" style="max-width:850px;" viewBox="-50 -10 850 721"><style>



#mermaid-1579814226923 .label {
  font-family: 'trebuchet ms', verdana, arial;
  font-family: var(--mermaid-font-family);
  color: #333; }

#mermaid-1579814226923 .label text {
  fill: #333; }

#mermaid-1579814226923 .node rect,
#mermaid-1579814226923 .node circle,
#mermaid-1579814226923 .node ellipse,
#mermaid-1579814226923 .node polygon,
#mermaid-1579814226923 .node path {
  fill: #ECECFF;
  stroke: #9370DB;
  stroke-width: 1px; }

#mermaid-1579814226923 .node .label {
  text-align: center; }

#mermaid-1579814226923 .node.clickable {
  cursor: pointer; }

#mermaid-1579814226923 .arrowheadPath {
  fill: #333333; }

#mermaid-1579814226923 .edgePath .path {
  stroke: #333333;
  stroke-width: 1.5px; }

#mermaid-1579814226923 .edgeLabel {
  background-color: #e8e8e8;
  text-align: center; }

#mermaid-1579814226923 .cluster rect {
  fill: #ffffde;
  stroke: #aaaa33;
  stroke-width: 1px; }

#mermaid-1579814226923 .cluster text {
  fill: #333; }

#mermaid-1579814226923 div.mermaidTooltip {
  position: absolute;
  text-align: center;
  max-width: 200px;
  padding: 2px;
  font-family: 'trebuchet ms', verdana, arial;
  font-family: var(--mermaid-font-family);
  font-size: 12px;
  background: #ffffde;
  border: 1px solid #aaaa33;
  border-radius: 2px;
  pointer-events: none;
  z-index: 100; }

#mermaid-1579814226923 .actor {
  stroke: #CCCCFF;
  fill: #ECECFF; }

#mermaid-1579814226923 text.actor {
  fill: black;
  stroke: none; }

#mermaid-1579814226923 .actor-line {
  stroke: grey; }

#mermaid-1579814226923 .messageLine0 {
  stroke-width: 1.5;
  stroke-dasharray: '2 2';
  stroke: #333; }

#mermaid-1579814226923 .messageLine1 {
  stroke-width: 1.5;
  stroke-dasharray: '2 2';
  stroke: #333; }

#mermaid-1579814226923 #arrowhead {
  fill: #333; }

#mermaid-1579814226923 .sequenceNumber {
  fill: white; }

#mermaid-1579814226923 #sequencenumber {
  fill: #333; }

#mermaid-1579814226923 #crosshead path {
  fill: #333 !important;
  stroke: #333 !important; }

#mermaid-1579814226923 .messageText {
  fill: #333;
  stroke: none; }

#mermaid-1579814226923 .labelBox {
  stroke: #CCCCFF;
  fill: #ECECFF; }

#mermaid-1579814226923 .labelText {
  fill: black;
  stroke: none; }

#mermaid-1579814226923 .loopText {
  fill: black;
  stroke: none; }

#mermaid-1579814226923 .loopLine {
  stroke-width: 2;
  stroke-dasharray: '2 2';
  stroke: #CCCCFF; }

#mermaid-1579814226923 .note {
  stroke: #aaaa33;
  fill: #fff5ad; }

#mermaid-1579814226923 .noteText {
  fill: black;
  stroke: none;
  font-family: 'trebuchet ms', verdana, arial;
  font-family: var(--mermaid-font-family);
  font-size: 14px; }

#mermaid-1579814226923 .activation0 {
  fill: #f4f4f4;
  stroke: #666; }

#mermaid-1579814226923 .activation1 {
  fill: #f4f4f4;
  stroke: #666; }

#mermaid-1579814226923 .activation2 {
  fill: #f4f4f4;
  stroke: #666; }


#mermaid-1579814226923 .mermaid-main-font {
  font-family: "trebuchet ms", verdana, arial;
  font-family: var(--mermaid-font-family); }

#mermaid-1579814226923 .section {
  stroke: none;
  opacity: 0.2; }

#mermaid-1579814226923 .section0 {
  fill: rgba(102, 102, 255, 0.49); }

#mermaid-1579814226923 .section2 {
  fill: #fff400; }

#mermaid-1579814226923 .section1,
#mermaid-1579814226923 .section3 {
  fill: white;
  opacity: 0.2; }

#mermaid-1579814226923 .sectionTitle0 {
  fill: #333; }

#mermaid-1579814226923 .sectionTitle1 {
  fill: #333; }

#mermaid-1579814226923 .sectionTitle2 {
  fill: #333; }

#mermaid-1579814226923 .sectionTitle3 {
  fill: #333; }

#mermaid-1579814226923 .sectionTitle {
  text-anchor: start;
  font-size: 11px;
  text-height: 14px;
  font-family: 'trebuchet ms', verdana, arial;
  font-family: var(--mermaid-font-family); }


#mermaid-1579814226923 .grid .tick {
  stroke: lightgrey;
  opacity: 0.8;
  shape-rendering: crispEdges; }
#mermaid-1579814226923   .grid .tick text {
    font-family: 'trebuchet ms', verdana, arial;
    font-family: var(--mermaid-font-family); }

#mermaid-1579814226923 .grid path {
  stroke-width: 0; }


#mermaid-1579814226923 .today {
  fill: none;
  stroke: red;
  stroke-width: 2px; }



#mermaid-1579814226923 .task {
  stroke-width: 2; }

#mermaid-1579814226923 .taskText {
  text-anchor: middle;
  font-family: 'trebuchet ms', verdana, arial;
  font-family: var(--mermaid-font-family); }

#mermaid-1579814226923 .taskText:not([font-size]) {
  font-size: 11px; }

#mermaid-1579814226923 .taskTextOutsideRight {
  fill: black;
  text-anchor: start;
  font-size: 11px;
  font-family: 'trebuchet ms', verdana, arial;
  font-family: var(--mermaid-font-family); }

#mermaid-1579814226923 .taskTextOutsideLeft {
  fill: black;
  text-anchor: end;
  font-size: 11px; }


#mermaid-1579814226923 .task.clickable {
  cursor: pointer; }

#mermaid-1579814226923 .taskText.clickable {
  cursor: pointer;
  fill: #003163 !important;
  font-weight: bold; }

#mermaid-1579814226923 .taskTextOutsideLeft.clickable {
  cursor: pointer;
  fill: #003163 !important;
  font-weight: bold; }

#mermaid-1579814226923 .taskTextOutsideRight.clickable {
  cursor: pointer;
  fill: #003163 !important;
  font-weight: bold; }


#mermaid-1579814226923 .taskText0,
#mermaid-1579814226923 .taskText1,
#mermaid-1579814226923 .taskText2,
#mermaid-1579814226923 .taskText3 {
  fill: white; }

#mermaid-1579814226923 .task0,
#mermaid-1579814226923 .task1,
#mermaid-1579814226923 .task2,
#mermaid-1579814226923 .task3 {
  fill: #8a90dd;
  stroke: #534fbc; }

#mermaid-1579814226923 .taskTextOutside0,
#mermaid-1579814226923 .taskTextOutside2 {
  fill: black; }

#mermaid-1579814226923 .taskTextOutside1,
#mermaid-1579814226923 .taskTextOutside3 {
  fill: black; }


#mermaid-1579814226923 .active0,
#mermaid-1579814226923 .active1,
#mermaid-1579814226923 .active2,
#mermaid-1579814226923 .active3 {
  fill: #bfc7ff;
  stroke: #534fbc; }

#mermaid-1579814226923 .activeText0,
#mermaid-1579814226923 .activeText1,
#mermaid-1579814226923 .activeText2,
#mermaid-1579814226923 .activeText3 {
  fill: black !important; }


#mermaid-1579814226923 .done0,
#mermaid-1579814226923 .done1,
#mermaid-1579814226923 .done2,
#mermaid-1579814226923 .done3 {
  stroke: grey;
  fill: lightgrey;
  stroke-width: 2; }

#mermaid-1579814226923 .doneText0,
#mermaid-1579814226923 .doneText1,
#mermaid-1579814226923 .doneText2,
#mermaid-1579814226923 .doneText3 {
  fill: black !important; }


#mermaid-1579814226923 .crit0,
#mermaid-1579814226923 .crit1,
#mermaid-1579814226923 .crit2,
#mermaid-1579814226923 .crit3 {
  stroke: #ff8888;
  fill: red;
  stroke-width: 2; }

#mermaid-1579814226923 .activeCrit0,
#mermaid-1579814226923 .activeCrit1,
#mermaid-1579814226923 .activeCrit2,
#mermaid-1579814226923 .activeCrit3 {
  stroke: #ff8888;
  fill: #bfc7ff;
  stroke-width: 2; }

#mermaid-1579814226923 .doneCrit0,
#mermaid-1579814226923 .doneCrit1,
#mermaid-1579814226923 .doneCrit2,
#mermaid-1579814226923 .doneCrit3 {
  stroke: #ff8888;
  fill: lightgrey;
  stroke-width: 2;
  cursor: pointer;
  shape-rendering: crispEdges; }

#mermaid-1579814226923 .milestone {
  transform: rotate(45deg) scale(0.8, 0.8); }

#mermaid-1579814226923 .milestoneText {
  font-style: italic; }

#mermaid-1579814226923 .doneCritText0,
#mermaid-1579814226923 .doneCritText1,
#mermaid-1579814226923 .doneCritText2,
#mermaid-1579814226923 .doneCritText3 {
  fill: black !important; }

#mermaid-1579814226923 .activeCritText0,
#mermaid-1579814226923 .activeCritText1,
#mermaid-1579814226923 .activeCritText2,
#mermaid-1579814226923 .activeCritText3 {
  fill: black !important; }

#mermaid-1579814226923 .titleText {
  text-anchor: middle;
  font-size: 18px;
  fill: black;
  font-family: 'trebuchet ms', verdana, arial;
  font-family: var(--mermaid-font-family); }

#mermaid-1579814226923 g.classGroup text {
  fill: #9370DB;
  stroke: none;
  font-family: 'trebuchet ms', verdana, arial;
  font-family: var(--mermaid-font-family);
  font-size: 10px; }
#mermaid-1579814226923   g.classGroup text .title {
    font-weight: bolder; }

#mermaid-1579814226923 g.clickable {
  cursor: pointer; }

#mermaid-1579814226923 g.classGroup rect {
  fill: #ECECFF;
  stroke: #9370DB; }

#mermaid-1579814226923 g.classGroup line {
  stroke: #9370DB;
  stroke-width: 1; }

#mermaid-1579814226923 .classLabel .box {
  stroke: none;
  stroke-width: 0;
  fill: #ECECFF;
  opacity: 0.5; }

#mermaid-1579814226923 .classLabel .label {
  fill: #9370DB;
  font-size: 10px; }

#mermaid-1579814226923 .relation {
  stroke: #9370DB;
  stroke-width: 1;
  fill: none; }

#mermaid-1579814226923 .dashed-line {
  stroke-dasharray: 3; }

#mermaid-1579814226923 #compositionStart {
  fill: #9370DB;
  stroke: #9370DB;
  stroke-width: 1; }

#mermaid-1579814226923 #compositionEnd {
  fill: #9370DB;
  stroke: #9370DB;
  stroke-width: 1; }

#mermaid-1579814226923 #aggregationStart {
  fill: #ECECFF;
  stroke: #9370DB;
  stroke-width: 1; }

#mermaid-1579814226923 #aggregationEnd {
  fill: #ECECFF;
  stroke: #9370DB;
  stroke-width: 1; }

#mermaid-1579814226923 #dependencyStart {
  fill: #9370DB;
  stroke: #9370DB;
  stroke-width: 1; }

#mermaid-1579814226923 #dependencyEnd {
  fill: #9370DB;
  stroke: #9370DB;
  stroke-width: 1; }

#mermaid-1579814226923 #extensionStart {
  fill: #9370DB;
  stroke: #9370DB;
  stroke-width: 1; }

#mermaid-1579814226923 #extensionEnd {
  fill: #9370DB;
  stroke: #9370DB;
  stroke-width: 1; }

#mermaid-1579814226923 .commit-id,
#mermaid-1579814226923 .commit-msg,
#mermaid-1579814226923 .branch-label {
  fill: lightgrey;
  color: lightgrey;
  font-family: 'trebuchet ms', verdana, arial;
  font-family: var(--mermaid-font-family); }

#mermaid-1579814226923 .pieTitleText {
  text-anchor: middle;
  font-size: 25px;
  fill: black;
  font-family: 'trebuchet ms', verdana, arial;
  font-family: var(--mermaid-font-family); }

#mermaid-1579814226923 .slice {
  font-family: 'trebuchet ms', verdana, arial;
  font-family: var(--mermaid-font-family); }

#mermaid-1579814226923 g.stateGroup text {
  fill: #9370DB;
  stroke: none;
  font-size: 10px;
  font-family: 'trebuchet ms', verdana, arial;
  font-family: var(--mermaid-font-family); }

#mermaid-1579814226923 g.stateGroup text {
  fill: #9370DB;
  stroke: none;
  font-size: 10px; }

#mermaid-1579814226923 g.stateGroup .state-title {
  font-weight: bolder;
  fill: black; }

#mermaid-1579814226923 g.stateGroup rect {
  fill: #ECECFF;
  stroke: #9370DB; }

#mermaid-1579814226923 g.stateGroup line {
  stroke: #9370DB;
  stroke-width: 1; }

#mermaid-1579814226923 .transition {
  stroke: #9370DB;
  stroke-width: 1;
  fill: none; }

#mermaid-1579814226923 .stateGroup .composit {
  fill: white;
  border-bottom: 1px; }

#mermaid-1579814226923 .stateGroup .alt-composit {
  fill: #e0e0e0;
  border-bottom: 1px; }

#mermaid-1579814226923 .state-note {
  stroke: #aaaa33;
  fill: #fff5ad; }
#mermaid-1579814226923   .state-note text {
    fill: black;
    stroke: none;
    font-size: 10px; }

#mermaid-1579814226923 .stateLabel .box {
  stroke: none;
  stroke-width: 0;
  fill: #ECECFF;
  opacity: 0.5; }

#mermaid-1579814226923 .stateLabel text {
  fill: black;
  font-size: 10px;
  font-weight: bold;
  font-family: 'trebuchet ms', verdana, arial;
  font-family: var(--mermaid-font-family); }

:root {
  --mermaid-font-family: '"trebuchet ms", verdana, arial';
  --mermaid-font-family: "Comic Sans MS", "Comic Sans", cursive; }

:root { --mermaid-font-family: "trebuchet ms", verdana, arial;}</style><style>#mermaid-1579814226923 {
    color: rgb(0, 0, 0);
    font: 16px "trebuchet ms", verdana, arial;
  }</style><g></g><g><line id="actor0" x1="75" y1="5" x2="75" y2="710" class="actor-line" stroke-width="0.5px" stroke="#999"></line><rect x="0" y="0" fill="#eaeaea" stroke="#666" width="150" height="65" rx="3" ry="3" class="actor"></rect><text x="75" y="32.5" dominant-baseline="central" alignment-baseline="central" class="actor" style="text-anchor: middle; font-size: 14px;"><tspan x="75" dy="0">Internautes</tspan></text></g><g><line id="actor1" x1="275" y1="5" x2="275" y2="710" class="actor-line" stroke-width="0.5px" stroke="#999"></line><rect x="200" y="0" fill="#eaeaea" stroke="#666" width="150" height="65" rx="3" ry="3" class="actor"></rect><text x="275" y="32.5" dominant-baseline="central" alignment-baseline="central" class="actor" style="text-anchor: middle; font-size: 14px;"><tspan x="275" dy="0">Répartiteur de charge</tspan></text></g><g><line id="actor2" x1="475" y1="5" x2="475" y2="710" class="actor-line" stroke-width="0.5px" stroke="#999"></line><rect x="400" y="0" fill="#eaeaea" stroke="#666" width="150" height="65" rx="3" ry="3" class="actor"></rect><text x="475" y="32.5" dominant-baseline="central" alignment-baseline="central" class="actor" style="text-anchor: middle; font-size: 14px;"><tspan x="475" dy="0">Serveur web 1</tspan></text></g><g><line id="actor3" x1="675" y1="5" x2="675" y2="710" class="actor-line" stroke-width="0.5px" stroke="#999"></line><rect x="600" y="0" fill="#eaeaea" stroke="#666" width="150" height="65" rx="3" ry="3" class="actor"></rect><text x="675" y="32.5" dominant-baseline="central" alignment-baseline="central" class="actor" style="text-anchor: middle; font-size: 14px;"><tspan x="675" dy="0">Serveur web 2</tspan></text></g><defs><marker id="arrowhead" refX="5" refY="2" markerWidth="6" markerHeight="4" orient="auto"><path d="M 0,0 V 4 L6,2 Z"></path></marker></defs><defs><marker id="crosshead" markerWidth="15" markerHeight="8" orient="auto" refX="16" refY="4"><path fill="black" stroke="#000000" stroke-width="1px" d="M 9,2 V 6 L16,4 Z" style="stroke-dasharray: 0, 0;"></path><path fill="none" stroke="#000000" stroke-width="1px" d="M 0,1 L 6,7 M 6,1 L 0,7" style="stroke-dasharray: 0, 0;"></path></marker></defs><defs><marker id="sequencenumber" refX="15" refY="15" markerWidth="60" markerHeight="40" orient="auto"><circle cx="15" cy="15" r="6"></circle></marker></defs><g><text x="175" y="93" class="messageText" style="text-anchor: middle;">http request 1</text><line x1="75" y1="100" x2="275" y2="100" class="messageLine0" stroke-width="2" stroke="black" marker-end="url(#arrowhead)" style="fill: none;"></line></g><g><text x="375" y="128" class="messageText" style="text-anchor: middle;">http request 1</text><line x1="275" y1="135" x2="475" y2="135" class="messageLine1" stroke-width="2" stroke="black" marker-end="url(#arrowhead)" style="stroke-dasharray: 3, 3; fill: none;"></line></g><g><text x="375" y="163" class="messageText" style="text-anchor: middle;">http response 1</text><line x1="475" y1="170" x2="275" y2="170" class="messageLine1" stroke-width="2" stroke="black" marker-end="url(#arrowhead)" style="stroke-dasharray: 3, 3; fill: none;"></line></g><g><text x="175" y="198" class="messageText" style="text-anchor: middle;">http response 1</text><line x1="275" y1="205" x2="75" y2="205" class="messageLine1" stroke-width="2" stroke="black" marker-end="url(#arrowhead)" style="stroke-dasharray: 3, 3; fill: none;"></line></g><g><text x="175" y="233" class="messageText" style="text-anchor: middle;">http request 2</text><line x1="75" y1="240" x2="275" y2="240" class="messageLine0" stroke-width="2" stroke="black" marker-end="url(#arrowhead)" style="fill: none;"></line></g><g><text x="475" y="268" class="messageText" style="text-anchor: middle;">http request 2</text><line x1="275" y1="275" x2="675" y2="275" class="messageLine1" stroke-width="2" stroke="black" marker-end="url(#arrowhead)" style="stroke-dasharray: 3, 3; fill: none;"></line></g><g><text x="475" y="303" class="messageText" style="text-anchor: middle;">http response 2</text><line x1="675" y1="310" x2="275" y2="310" class="messageLine1" stroke-width="2" stroke="black" marker-end="url(#arrowhead)" style="stroke-dasharray: 3, 3; fill: none;"></line></g><g><text x="175" y="338" class="messageText" style="text-anchor: middle;">http response 2</text><line x1="275" y1="345" x2="75" y2="345" class="messageLine1" stroke-width="2" stroke="black" marker-end="url(#arrowhead)" style="stroke-dasharray: 3, 3; fill: none;"></line></g><g><text x="175" y="373" class="messageText" style="text-anchor: middle;">http request 3</text><line x1="75" y1="380" x2="275" y2="380" class="messageLine0" stroke-width="2" stroke="black" marker-end="url(#arrowhead)" style="fill: none;"></line></g><g><text x="475" y="408" class="messageText" style="text-anchor: middle;">http request 3</text><line x1="275" y1="415" x2="675" y2="415" class="messageLine1" stroke-width="2" stroke="black" marker-end="url(#arrowhead)" style="stroke-dasharray: 3, 3; fill: none;"></line></g><g><text x="475" y="443" class="messageText" style="text-anchor: middle;">http response 3</text><line x1="675" y1="450" x2="275" y2="450" class="messageLine1" stroke-width="2" stroke="black" marker-end="url(#arrowhead)" style="stroke-dasharray: 3, 3; fill: none;"></line></g><g><text x="175" y="478" class="messageText" style="text-anchor: middle;">http response 3</text><line x1="275" y1="485" x2="75" y2="485" class="messageLine1" stroke-width="2" stroke="black" marker-end="url(#arrowhead)" style="stroke-dasharray: 3, 3; fill: none;"></line></g><g><text x="175" y="513" class="messageText" style="text-anchor: middle;">http request 4</text><line x1="75" y1="520" x2="275" y2="520" class="messageLine0" stroke-width="2" stroke="black" marker-end="url(#arrowhead)" style="fill: none;"></line></g><g><text x="375" y="548" class="messageText" style="text-anchor: middle;">http request 4</text><line x1="275" y1="555" x2="475" y2="555" class="messageLine1" stroke-width="2" stroke="black" marker-end="url(#arrowhead)" style="stroke-dasharray: 3, 3; fill: none;"></line></g><g><text x="375" y="583" class="messageText" style="text-anchor: middle;">http response 4</text><line x1="475" y1="590" x2="275" y2="590" class="messageLine1" stroke-width="2" stroke="black" marker-end="url(#arrowhead)" style="stroke-dasharray: 3, 3; fill: none;"></line></g><g><text x="175" y="618" class="messageText" style="text-anchor: middle;">http response 4</text><line x1="275" y1="625" x2="75" y2="625" class="messageLine1" stroke-width="2" stroke="black" marker-end="url(#arrowhead)" style="stroke-dasharray: 3, 3; fill: none;"></line></g><g><rect x="0" y="645" fill="#eaeaea" stroke="#666" width="150" height="65" rx="3" ry="3" class="actor"></rect><text x="75" y="677.5" dominant-baseline="central" alignment-baseline="central" class="actor" style="text-anchor: middle; font-size: 14px;"><tspan x="75" dy="0">Internautes</tspan></text></g><g><rect x="200" y="645" fill="#eaeaea" stroke="#666" width="150" height="65" rx="3" ry="3" class="actor"></rect><text x="275" y="677.5" dominant-baseline="central" alignment-baseline="central" class="actor" style="text-anchor: middle; font-size: 14px;"><tspan x="275" dy="0">Répartiteur de charge</tspan></text></g><g><rect x="400" y="645" fill="#eaeaea" stroke="#666" width="150" height="65" rx="3" ry="3" class="actor"></rect><text x="475" y="677.5" dominant-baseline="central" alignment-baseline="central" class="actor" style="text-anchor: middle; font-size: 14px;"><tspan x="475" dy="0">Serveur web 1</tspan></text></g><g><rect x="600" y="645" fill="#eaeaea" stroke="#666" width="150" height="65" rx="3" ry="3" class="actor"></rect><text x="675" y="677.5" dominant-baseline="central" alignment-baseline="central" class="actor" style="text-anchor: middle; font-size: 14px;"><tspan x="675" dy="0">Serveur web 2</tspan></text></g></svg>