{
  "Produit A": {
    "Fournisseur X": 350,
    "Fournisseur Y": 320
  },
  "Produit B": {
    "Fournisseur X": 200,
    "Fournisseur Y": 250,
    "Fournisseur Z": 180
  },
  "Produit C": {
    "Fournisseur X": 140,
    "Fournisseur Z": 200
  }
}